# Blender v2.93.6 OBJ File: ''
# www.blender.org
mtllib fence_corner.mtl
o Cube_Cube.001
v -0.500000 -0.625000 0.437500
v -0.500000 0.312500 0.437500
v -0.437500 0.312500 0.437500
v -0.437500 -0.625000 0.437500
v -0.437500 0.312500 0.500000
v -0.437500 -0.625000 0.500000
v -0.500000 0.312500 0.500000
v -0.500000 -0.625000 0.500000
v -0.500000 -0.625000 -0.500000
v -0.500000 0.312500 -0.500000
v -0.437500 0.312500 -0.500000
v -0.437500 -0.625000 -0.500000
v -0.437500 0.312500 -0.437500
v -0.437500 -0.625000 -0.437500
v -0.500000 0.312500 -0.437500
v -0.500000 -0.625000 -0.437500
v -0.500000 -0.625000 -0.062500
v -0.500000 0.312500 -0.062500
v -0.437500 0.312500 -0.062500
v -0.437500 -0.625000 -0.062500
v -0.437500 0.312500 0.062500
v -0.437500 -0.625000 0.062500
v -0.500000 0.312500 0.062500
v -0.500000 -0.625000 0.062500
v -0.562500 0.187500 -0.500000
v -0.562500 0.187500 0.500000
v -0.500000 0.187500 0.500000
v -0.500000 0.187500 -0.500000
v -0.500000 -0.000000 0.500000
v -0.500000 -0.000000 -0.500000
v -0.562500 -0.000000 0.500000
v -0.562500 -0.000000 -0.500000
v -0.562500 -0.125000 -0.500000
v -0.562500 -0.125000 0.500000
v -0.500000 -0.125000 0.500000
v -0.500000 -0.125000 -0.500000
v -0.500000 -0.312500 0.500000
v -0.500000 -0.312500 -0.500000
v -0.562500 -0.312500 0.500000
v -0.562500 -0.312500 -0.500000
vt 0.062500 0.000000
vt 0.062500 0.937500
vt 0.125000 0.937500
vt 0.125000 0.000000
vt 0.062500 0.000000
vt 0.062500 0.937500
vt 0.125000 0.937500
vt 0.125000 0.000000
vt 0.062500 0.000000
vt 0.062500 0.937500
vt 0.000000 0.937500
vt 0.000000 0.000000
vt 0.125000 -0.000000
vt 0.125000 0.937500
vt -0.000000 0.062500
vt 0.062500 0.062500
vt 0.062500 -0.000000
vt -0.000000 -0.000000
vt -0.000000 0.937500
vt -0.000000 0.875000
vt 0.062500 0.875000
vt 0.062500 0.000000
vt 0.062500 0.937500
vt 0.125000 0.937500
vt 0.125000 0.000000
vt 0.000000 -0.000000
vt 0.000000 0.937500
vt 0.062500 0.937500
vt 0.062500 -0.000000
vt 0.000000 0.937500
vt -0.000000 0.000000
vt 0.062500 0.000000
vt 0.062500 0.937500
vt -0.000000 0.937500
vt -0.000000 0.000000
vt 0.000000 0.062500
vt 0.062500 0.062500
vt -0.000000 0.875000
vt 0.062500 0.875000
vt 0.062500 0.000000
vt 0.062500 0.937500
vt 0.125000 0.937500
vt 0.125000 0.000000
vt 0.000000 -0.000000
vt 0.000000 0.937500
vt 0.125000 0.937500
vt 0.125000 -0.000000
vt 0.062500 0.000000
vt 0.062500 0.937500
vt 0.000000 0.937500
vt -0.000000 0.000000
vt 0.125000 0.000000
vt 0.125000 0.937500
vt 0.000000 0.937500
vt 0.000000 0.000000
vt -0.000000 0.062500
vt 0.125000 0.062500
vt 0.000000 0.875000
vt 0.125000 0.875000
vt 0.250000 1.062500
vt 0.250000 0.062500
vt 0.312500 0.062500
vt 0.312500 1.062500
vt 0.437500 1.000000
vt 0.437500 0.000000
vt 0.250000 0.000000
vt 0.250000 1.000000
vt 0.312500 0.937500
vt 0.312500 -0.062500
vt 0.250000 -0.062500
vt 0.250000 0.937500
vt 0.250000 1.000000
vt 0.250000 0.000000
vt 0.437500 0.000000
vt 0.437500 1.000000
vt 0.437500 0.500000
vt 0.437500 0.312500
vt 0.375000 0.312500
vt 0.375000 0.500000
vt 0.437500 0.312500
vt 0.437500 0.500000
vt 0.375000 0.500000
vt 0.375000 0.312500
vt 0.250000 1.062500
vt 0.250000 0.062500
vt 0.312500 0.062500
vt 0.312500 1.062500
vt 0.437500 1.000000
vt 0.437500 0.000000
vt 0.250000 0.000000
vt 0.250000 1.000000
vt 0.312500 0.937500
vt 0.312500 -0.062500
vt 0.250000 -0.062500
vt 0.250000 0.937500
vt 0.250000 1.000000
vt 0.250000 0.000000
vt 0.437500 0.000000
vt 0.437500 1.000000
vt 0.437500 0.187500
vt 0.437500 -0.000000
vt 0.375000 -0.000000
vt 0.375000 0.187500
vt 0.437500 -0.000000
vt 0.437500 0.187500
vt 0.375000 0.187500
vt 0.375000 -0.000000
vn 0.0000 0.0000 -1.0000
vn 1.0000 0.0000 0.0000
vn 0.0000 0.0000 1.0000
vn -1.0000 -0.0000 0.0000
vn 0.0000 -1.0000 0.0000
vn -0.0000 1.0000 0.0000
usemtl Material.001
s 1
f 1/1/1 2/2/1 3/3/1 4/4/1
f 4/5/2 3/6/2 5/7/2 6/8/2
f 6/9/3 5/10/3 7/11/3 8/12/3
f 8/13/4 7/14/4 2/2/4 1/1/4
f 4/15/5 6/16/5 8/17/5 1/18/5
f 5/10/6 3/19/6 2/20/6 7/21/6
f 9/22/1 10/23/1 11/24/1 12/25/1
f 12/26/2 11/27/2 13/28/2 14/29/2
f 14/29/3 13/28/3 15/30/3 16/31/3
f 16/32/4 15/33/4 10/34/4 9/35/4
f 12/36/5 14/37/5 16/32/5 9/35/5
f 13/28/6 11/27/6 10/38/6 15/39/6
f 17/40/1 18/41/1 19/42/1 20/43/1
f 20/44/2 19/45/2 21/46/2 22/47/2
f 22/48/3 21/49/3 23/50/3 24/51/3
f 24/52/4 23/53/4 18/54/4 17/55/4
f 20/56/5 22/57/5 24/52/5 17/55/5
f 21/46/6 19/45/6 18/58/6 23/59/6
f 25/60/6 26/61/6 27/62/6 28/63/6
f 28/64/2 27/65/2 29/66/2 30/67/2
f 30/68/5 29/69/5 31/70/5 32/71/5
f 32/72/4 31/73/4 26/74/4 25/75/4
f 28/76/1 30/77/1 32/78/1 25/79/1
f 29/80/3 27/81/3 26/82/3 31/83/3
f 33/84/6 34/85/6 35/86/6 36/87/6
f 36/88/2 35/89/2 37/90/2 38/91/2
f 38/92/5 37/93/5 39/94/5 40/95/5
f 40/96/4 39/97/4 34/98/4 33/99/4
f 36/100/1 38/101/1 40/102/1 33/103/1
f 37/104/3 35/105/3 34/106/3 39/107/3
o Cube_Cube.002
v 0.437500 -0.625000 0.500000
v 0.437500 0.312500 0.500000
v 0.437500 0.312500 0.437500
v 0.437500 -0.625000 0.437500
v 0.500000 0.312500 0.437500
v 0.500000 -0.625000 0.437500
v 0.500000 0.312500 0.500000
v 0.500000 -0.625000 0.500000
v -0.062500 -0.625000 0.500000
v -0.062500 0.312500 0.500000
v -0.062500 0.312500 0.437500
v -0.062500 -0.625000 0.437500
v 0.062500 0.312500 0.437500
v 0.062500 -0.625000 0.437500
v 0.062500 0.312500 0.500000
v 0.062500 -0.625000 0.500000
v -0.500000 0.187500 0.562500
v 0.500000 0.187500 0.562500
v 0.500000 0.187500 0.500000
v -0.500000 0.187500 0.500000
v 0.500000 -0.000000 0.500000
v -0.500000 -0.000000 0.500000
v 0.500000 -0.000000 0.562500
v -0.500000 -0.000000 0.562500
v -0.500000 -0.125000 0.562500
v 0.500000 -0.125000 0.562500
v 0.500000 -0.125000 0.500000
v -0.500000 -0.125000 0.500000
v 0.500000 -0.312500 0.500000
v -0.500000 -0.312500 0.500000
v 0.500000 -0.312500 0.562500
v -0.500000 -0.312500 0.562500
vt 0.062500 0.000000
vt 0.062500 0.937500
vt 0.125000 0.937500
vt 0.125000 0.000000
vt 0.062500 0.000000
vt 0.062500 0.937500
vt 0.125000 0.937500
vt 0.125000 0.000000
vt 0.062500 0.000000
vt 0.062500 0.937500
vt 0.000000 0.937500
vt 0.000000 0.000000
vt 0.125000 -0.000000
vt 0.125000 0.937500
vt -0.000000 0.062500
vt 0.062500 0.062500
vt 0.062500 -0.000000
vt -0.000000 -0.000000
vt -0.000000 0.937500
vt -0.000000 0.875000
vt 0.062500 0.875000
vt 0.062500 0.000000
vt 0.062500 0.937500
vt 0.125000 0.937500
vt 0.125000 0.000000
vt 0.000000 -0.000000
vt 0.000000 0.937500
vt 0.125000 0.937500
vt 0.125000 -0.000000
vt 0.062500 0.000000
vt 0.062500 0.937500
vt 0.000000 0.937500
vt -0.000000 0.000000
vt 0.125000 0.000000
vt 0.125000 0.937500
vt 0.000000 0.937500
vt 0.000000 0.000000
vt -0.000000 0.062500
vt 0.125000 0.062500
vt 0.000000 0.875000
vt 0.125000 0.875000
vt 0.375000 1.000000
vt 0.375000 0.000000
vt 0.437500 0.000000
vt 0.437500 1.000000
vt 0.250000 0.000000
vt 0.250000 1.000000
vt 0.312500 1.000000
vt 0.312500 0.000000
vt 0.250000 0.000000
vt 0.250000 1.000000
vt 0.437500 0.000000
vt 0.437500 1.000000
vt 0.437500 0.562500
vt 0.437500 0.375000
vt 0.375000 0.375000
vt 0.375000 0.562500
vt 0.437500 0.312500
vt 0.437500 0.500000
vt 0.375000 0.500000
vt 0.375000 0.312500
vt 0.375000 1.000000
vt 0.375000 0.000000
vt 0.437500 0.000000
vt 0.437500 1.000000
vt 0.250000 0.000000
vt 0.250000 1.000000
vt 0.312500 1.000000
vt 0.312500 0.000000
vt 0.250000 0.000000
vt 0.250000 1.000000
vt 0.437500 0.000000
vt 0.437500 1.000000
vt 0.437500 0.062500
vt 0.437500 -0.125000
vt 0.375000 -0.125000
vt 0.375000 0.062500
vt 0.437500 0.062500
vt 0.437500 0.250000
vt 0.375000 0.250000
vt 0.375000 0.062500
vn -1.0000 0.0000 0.0000
vn 0.0000 0.0000 -1.0000
vn 1.0000 0.0000 0.0000
vn 0.0000 -0.0000 1.0000
vn 0.0000 -1.0000 0.0000
vn 0.0000 1.0000 0.0000
usemtl Material.002
s 1
f 41/108/7 42/109/7 43/110/7 44/111/7
f 44/112/8 43/113/8 45/114/8 46/115/8
f 46/116/9 45/117/9 47/118/9 48/119/9
f 48/120/10 47/121/10 42/109/10 41/108/10
f 44/122/11 46/123/11 48/124/11 41/125/11
f 45/117/12 43/126/12 42/127/12 47/128/12
f 49/129/7 50/130/7 51/131/7 52/132/7
f 52/133/8 51/134/8 53/135/8 54/136/8
f 54/137/9 53/138/9 55/139/9 56/140/9
f 56/141/10 55/142/10 50/143/10 49/144/10
f 52/145/11 54/146/11 56/141/11 49/144/11
f 53/135/12 51/134/12 50/147/12 55/148/12
f 57/149/12 58/150/12 59/151/12 60/152/12
f 60/152/8 59/151/8 61/153/8 62/154/8
f 62/155/11 61/156/11 63/157/11 64/158/11
f 64/158/10 63/157/10 58/159/10 57/160/10
f 60/161/7 62/162/7 64/163/7 57/164/7
f 61/165/9 59/166/9 58/167/9 63/168/9
f 65/169/12 66/170/12 67/171/12 68/172/12
f 68/172/8 67/171/8 69/173/8 70/174/8
f 70/175/11 69/176/11 71/177/11 72/178/11
f 72/178/10 71/177/10 66/179/10 65/180/10
f 68/181/7 70/182/7 72/183/7 65/184/7
f 69/185/9 67/186/9 66/187/9 71/188/9
