# Blender v2.93.6 OBJ File: 'untitled.blend'
# www.blender.org
mtllib rock.mtl
o Cube_Cube.001
v 0.375000 0.375000 -0.437500
v 0.375000 -0.375000 -0.437500
v 0.437500 0.375000 0.375000
v 0.437500 -0.375000 0.375000
v -0.375000 0.375000 -0.437500
v -0.375000 -0.375000 -0.437500
v -0.375000 0.437500 0.375000
v -0.375000 -0.375000 0.437500
v 0.437500 0.375000 -0.375000
v 0.437500 -0.375000 -0.375000
v -0.375000 0.437500 -0.375000
v -0.437500 -0.375000 -0.375000
v 0.375000 0.437500 -0.375000
v 0.375000 0.437500 0.375000
v 0.375000 -0.437500 -0.375000
v 0.375000 -0.375000 0.437500
v 0.375000 0.375000 0.437500
v -0.375000 0.375000 0.437500
v 0.437500 0.437500 -0.437500
v -0.437500 0.375000 -0.375000
v 0.437500 0.437500 0.437500
v -0.437500 0.375000 0.375000
v -0.437500 -0.375000 0.375000
v 0.375000 -0.437500 0.375000
v -0.375000 -0.437500 -0.375000
v -0.375000 -0.437500 0.375000
v -0.437500 0.437500 -0.437500
v -0.437500 0.437500 0.437500
v -0.500000 -0.062500 -0.000000
v -0.500000 -0.062500 0.250000
v -0.500000 0.187500 -0.000000
v -0.500000 0.187500 0.250000
v 0.375000 0.500000 0.375000
v -0.375000 0.500000 0.375000
v 0.375000 0.500000 -0.375000
v -0.375000 0.500000 -0.375000
v 0.000000 0.187500 0.500000
v -0.125000 0.187500 0.500000
v -0.125000 0.062500 0.500000
v 0.000000 0.062500 0.500000
v -0.187500 0.375000 -0.500000
v -0.187500 0.187500 -0.500000
v -0.375000 0.187500 -0.500000
v 0.500000 0.062500 -0.062500
v 0.500000 0.062500 0.250000
v 0.500000 -0.250000 -0.062500
v 0.500000 -0.250000 0.250000
v -0.437500 -0.437500 0.437500
v 0.437500 -0.437500 0.437500
v 0.437500 -0.437500 -0.437500
v -0.437500 -0.437500 -0.437500
v -0.375000 -0.500000 0.375000
v 0.375000 -0.500000 0.375000
v 0.375000 -0.500000 -0.375000
v -0.375000 -0.500000 -0.375000
v -0.500000 -0.375000 -0.375000
v -0.500000 -0.375000 0.375000
v -0.500000 0.375000 -0.375000
v -0.500000 0.375000 0.375000
v -0.437500 -0.062500 -0.000000
v -0.437500 -0.062500 0.250000
v -0.437500 0.187500 -0.000000
v -0.437500 0.187500 0.250000
v 0.375000 0.375000 0.500000
v -0.375000 0.375000 0.500000
v -0.375000 -0.375000 0.500000
v 0.375000 -0.375000 0.500000
v 0.000000 0.187500 0.437500
v -0.125000 0.187500 0.437500
v -0.125000 0.062500 0.437500
v 0.000000 0.062500 0.437500
v 0.500000 0.375000 -0.375000
v 0.500000 0.375000 0.375000
v 0.500000 -0.375000 -0.375000
v 0.500000 -0.375000 0.375000
v 0.437500 0.062500 -0.062500
v 0.437500 0.062500 0.250000
v 0.437500 -0.250000 -0.062500
v 0.437500 -0.250000 0.250000
v 0.375000 0.375000 -0.500000
v 0.375000 -0.375000 -0.500000
v -0.375000 -0.375000 -0.500000
v -0.187500 0.375000 -0.437500
v -0.187500 0.187500 -0.437500
v -0.375000 0.375000 -0.437500
v -0.375000 0.187500 -0.437500
v -0.375000 0.437500 0.375000
v -0.375000 0.437500 0.375000
v -0.375000 0.437500 -0.375000
v -0.375000 0.437500 -0.375000
v -0.375000 0.500000 0.375000
v -0.375000 0.500000 -0.375000
vt 0.875000 0.062500
vt 0.125000 0.062500
vt 0.125000 0.000000
vt 0.875000 0.000000
vt 0.875000 0.937500
vt 0.125000 0.937500
vt 0.125000 1.000000
vt 0.875000 1.000000
vt 0.062500 0.125000
vt 0.062500 0.875000
vt 0.000000 0.875000
vt 0.000000 0.125000
vt 0.062500 0.875000
vt 0.062500 0.125000
vt 0.000000 0.125000
vt 0.000000 0.875000
vt 0.875000 0.937500
vt 0.125000 0.937500
vt 0.125000 1.000000
vt 0.875000 1.000000
vt 0.937500 0.125000
vt 0.937500 0.875000
vt 1.000000 0.875000
vt 1.000000 0.125000
vt 0.875000 0.125000
vt 0.875000 0.875000
vt 0.937500 0.937500
vt 0.937500 0.062500
vt 0.125000 0.875000
vt 0.062500 0.937500
vt 0.125000 0.125000
vt 0.062500 0.062500
vt 0.125000 0.875000
vt 0.875000 0.875000
vt 0.062500 0.937500
vt 0.875000 0.125000
vt 0.125000 0.125000
vt 0.062500 0.062500
vt 0.062500 0.562500
vt 0.062500 0.562500
vt 0.062500 0.562500
vt 0.875000 0.875000
vt 0.875000 0.125000
vt 0.937500 0.062500
vt 0.062500 0.937500
vt 0.062500 0.937500
vt 0.062500 0.937500
vt 0.562500 0.968750
vt 0.937500 0.968750
vt 0.937500 0.968750
vt 0.562500 0.968750
vt 0.125000 0.875000
vt 0.875000 0.875000
vt 0.937500 0.937500
vt 0.062500 0.937500
vt 0.875000 0.125000
vt 0.125000 0.125000
vt 0.062500 0.062500
vt 0.937500 0.062500
vt 0.125000 0.125000
vt 0.875000 0.125000
vt 0.937500 0.062500
vt 0.875000 0.875000
vt 0.937500 0.937500
vt 0.125000 0.875000
vt 0.687500 0.833333
vt 0.812500 0.833333
vt 0.812500 0.833333
vt 0.687500 0.833333
vt 0.062500 0.125000
vt 0.000000 0.125000
vt 0.062500 0.125000
vt 0.062500 0.875000
vt 0.000000 0.875000
vt 0.000000 0.125000
vt 0.062500 0.875000
vt 0.000000 0.875000
vt 0.937500 1.000000
vt 0.937500 1.000000
vt 0.562500 1.000000
vt 0.562500 1.000000
vt 0.125000 0.937500
vt 0.875000 0.937500
vt 0.875000 1.000000
vt 0.125000 1.000000
vt 0.937500 0.968750
vt 0.562500 0.968750
vt 0.781250 0.755208
vt 0.781250 0.807292
vt 0.781250 0.807292
vt 0.781250 0.755208
vt 0.875000 0.062500
vt 0.125000 0.062500
vt 0.125000 0.000000
vt 0.875000 0.000000
vt 0.062500 0.125000
vt 0.062500 0.875000
vt 0.000000 0.875000
vt 0.000000 0.125000
vt 0.125000 0.062500
vt 0.875000 0.062500
vt 0.875000 0.000000
vt 0.125000 0.000000
vt 1.000000 0.125000
vt 0.937500 0.125000
vt 0.937500 0.687500
vt 1.000000 0.687500
vt 0.937500 0.875000
vt 0.937500 0.125000
vt 1.000000 0.125000
vt 1.000000 0.875000
vt 0.671875 0.846354
vt 0.671875 0.716146
vt 0.671875 0.716146
vt 0.671875 0.846354
vt 0.937500 0.125000
vt 0.937500 0.875000
vt 1.000000 0.875000
vt 1.000000 0.125000
vt 0.937500 0.875000
vt 1.000000 0.875000
vt 0.937500 0.125000
vt 1.000000 0.125000
vt 0.125000 0.125000
vt 0.875000 0.125000
vt 0.875000 0.875000
vt 0.125000 0.875000
vt 0.062500 0.937500
vt 0.937500 0.937500
vt 0.125000 0.062500
vt 0.125000 -0.000000
vt 0.125000 0.062500
vt 0.875000 0.062500
vt 0.875000 -0.000000
vt 0.125000 -0.000000
vt 0.875000 0.062500
vt 0.875000 -0.000000
vt 0.125000 0.125000
vt 0.125000 0.875000
vt 0.875000 0.875000
vt 0.875000 0.125000
vt 0.250000 0.437500
vt 0.500000 0.437500
vt 0.875000 0.125000
vt 0.125000 0.125000
vt 0.500000 0.687500
vt 0.875000 0.875000
vt 0.250000 0.687500
vt 0.125000 0.875000
vt 0.250000 0.437500
vt 0.250000 0.687500
vt 0.500000 0.687500
vt 0.500000 0.437500
vt 0.812500 0.729167
vt 0.812500 0.729167
vt 0.687500 0.729167
vt 0.687500 0.729167
vt 0.375000 0.687500
vt 0.500000 0.687500
vt 0.875000 0.875000
vt 0.125000 0.875000
vt 0.500000 0.562500
vt 0.375000 0.562500
vt 0.125000 0.125000
vt 0.875000 0.125000
vt 0.500000 0.562500
vt 0.500000 0.687500
vt 0.375000 0.687500
vt 0.375000 0.562500
vt 0.718750 0.755208
vt 0.718750 0.755208
vt 0.718750 0.807292
vt 0.718750 0.807292
vt 0.250000 0.562500
vt 0.562500 0.562500
vt 0.875000 0.875000
vt 0.125000 0.875000
vt 0.562500 0.250000
vt 0.875000 0.125000
vt 0.250000 0.250000
vt 0.125000 0.125000
vt 0.562500 0.250000
vt 0.562500 0.562500
vt 0.250000 0.562500
vt 0.250000 0.250000
vt 0.828125 0.846354
vt 0.828125 0.846354
vt 0.828125 0.716146
vt 0.828125 0.716146
vt 0.312500 0.687500
vt 0.312500 0.875000
vt 0.875000 0.875000
vt 0.875000 0.125000
vt 0.125000 0.687500
vt 0.125000 0.125000
vt 0.125000 0.687500
vt 0.125000 0.875000
vt 0.312500 0.875000
vt 0.312500 0.687500
vt 0.875000 0.937500
vt 0.875000 1.000000
vt 0.312500 1.000000
vt 0.312500 0.937500
vt 0.312500 1.000000
vt 0.125000 1.000000
vt 0.125000 0.937500
vt 0.312500 0.937500
vt 1.000000 0.875000
vt 1.000000 0.687500
vt 0.937500 0.687500
vt 0.937500 0.875000
vt 0.125000 0.125000
vt 0.125000 0.125000
vt 0.062500 0.062500
vt 0.125000 0.937500
vt 0.875000 0.937500
vt 0.875000 1.000000
vt 0.125000 1.000000
vt 0.125000 0.875000
vt 0.125000 0.875000
vt 0.875000 0.875000
vt 0.125000 0.875000
vt 0.125000 0.125000
vt 0.875000 0.125000
vt 0.125000 0.937500
vt 0.125000 1.000000
vn 1.0000 0.0000 0.0000
vn 0.0000 -1.0000 0.0000
vn 0.0000 1.0000 0.0000
vn -1.0000 0.0000 0.0000
vn 0.0000 0.0000 -1.0000
vn 0.0000 0.0000 1.0000
usemtl Material.001
s off
f 15/1/1 24/2/1 53/3/1 54/4/1
f 2/5/2 6/6/2 82/7/2 81/8/2
f 22/9/3 20/10/3 58/11/3 59/12/3
f 18/13/4 8/14/4 66/15/4 65/16/4
f 11/17/4 7/18/4 34/19/4 36/20/4
f 4/21/2 10/22/2 74/23/2 75/24/2
f 2/25/5 1/26/5 19/27/5 50/28/5
f 1/26/5 5/29/5 27/30/5 19/27/5
f 6/31/5 2/25/5 50/28/5 51/32/5
f 5/29/5 6/31/5 51/32/5 27/30/5
f 3/33/1 9/34/1 19/27/1 21/35/1
f 9/34/1 10/36/1 50/28/1 19/27/1
f 4/37/1 3/33/1 21/35/1 49/38/1
f 10/36/1 4/37/1 49/38/1 50/28/1
f 87/39/6 7/40/6 88/41/6
f 13/42/3 14/43/3 21/44/3 19/27/3
f 11/45/6 89/46/6 90/47/6
f 7/48/6 11/49/6 90/50/6 88/51/6
f 18/52/6 17/53/6 21/54/6 28/55/6
f 16/56/6 8/57/6 48/58/6 49/59/6
f 8/57/6 18/52/6 28/55/6 48/58/6
f 17/53/6 16/56/6 49/59/6 21/54/6
f 23/60/4 12/61/4 51/62/4 48/58/4
f 12/61/4 20/63/4 27/64/4 51/62/4
f 22/65/4 23/60/4 48/58/4 28/55/4
f 20/63/4 22/65/4 28/55/4 27/64/4
f 32/66/2 31/67/2 62/68/2 63/69/2
f 20/10/5 12/70/5 56/71/5 58/11/5
f 23/72/6 22/73/6 59/74/6 57/75/6
f 12/76/2 23/72/2 57/75/2 56/77/2
f 92/78/6 36/79/6 34/80/6 91/81/6
f 14/82/1 13/83/1 35/84/1 33/85/1
f 89/86/6 11/49/6 36/79/6 92/78/6
f 7/48/6 87/87/6 91/81/6 34/80/6
f 40/88/4 37/89/4 68/90/4 71/91/4
f 17/92/3 18/93/3 65/94/3 64/95/3
f 16/96/1 17/97/1 64/98/1 67/99/1
f 8/100/2 16/101/2 67/102/2 66/103/2
f 82/104/4 6/105/4 86/106/4 43/107/4
f 1/108/1 2/109/1 81/110/1 80/111/1
f 45/112/5 47/113/5 79/114/5 77/115/5
f 10/116/5 9/117/5 72/118/5 74/119/5
f 3/120/6 4/21/6 75/24/6 73/121/6
f 9/117/3 3/122/3 73/123/3 72/118/3
f 26/124/2 24/125/2 49/59/2 48/58/2
f 15/126/2 25/127/2 51/128/2 50/129/2
f 25/127/2 26/124/2 48/58/2 51/128/2
f 24/125/2 15/126/2 50/129/2 49/59/2
f 25/130/5 15/1/5 54/4/5 55/131/5
f 26/132/4 25/133/4 55/134/4 52/135/4
f 24/136/6 26/132/6 52/135/6 53/137/6
f 52/138/2 55/139/2 54/140/2 53/141/2
f 30/142/4 29/143/4 56/144/4 57/145/4
f 29/143/4 31/146/4 58/147/4 56/144/4
f 32/148/4 30/142/4 57/145/4 59/149/4
f 31/146/4 32/148/4 59/149/4 58/147/4
f 61/150/4 63/151/4 62/152/4 60/153/4
f 31/67/6 29/154/6 60/155/6 62/68/6
f 30/156/5 32/66/5 63/69/5 61/157/5
f 29/154/3 30/156/3 61/157/3 60/155/3
f 38/158/6 37/159/6 64/160/6 65/161/6
f 40/162/6 39/163/6 66/164/6 67/165/6
f 39/163/6 38/158/6 65/161/6 66/164/6
f 37/159/6 40/162/6 67/165/6 64/160/6
f 71/166/6 68/167/6 69/168/6 70/169/6
f 39/170/3 40/88/3 71/91/3 70/171/3
f 38/172/1 39/170/1 70/171/1 69/173/1
f 37/89/2 38/172/2 69/173/2 68/90/2
f 45/174/1 44/175/1 72/176/1 73/177/1
f 44/175/1 46/178/1 74/179/1 72/176/1
f 47/180/1 45/174/1 73/177/1 75/181/1
f 46/178/1 47/180/1 75/181/1 74/179/1
f 78/182/1 76/183/1 77/184/1 79/185/1
f 44/186/2 45/112/2 77/115/2 76/187/2
f 47/113/3 46/188/3 78/189/3 79/114/3
f 46/188/6 44/186/6 76/187/6 78/189/6
f 42/190/5 41/191/5 80/192/5 81/193/5
f 43/194/5 42/190/5 81/193/5 82/195/5
f 86/196/5 85/197/5 83/198/5 84/199/5
f 1/200/3 80/201/3 41/202/3 83/203/3
f 42/204/3 43/205/3 86/206/3 84/207/3
f 41/208/4 42/209/4 84/210/4 83/211/4
f 14/43/3 87/212/3 88/213/3 28/214/3 21/44/3
f 87/215/6 14/216/6 33/217/6 91/218/6
f 89/219/3 13/42/3 19/27/3 27/30/3 90/220/3
f 88/213/3 90/220/3 27/30/3 28/214/3
f 35/221/3 92/222/3 91/223/3 33/224/3
f 13/83/5 89/225/5 92/226/5 35/84/5
